<?xml version="1.0" standalone="no"?>
<!DOCTYPE svg PUBLIC "-//W3C//DTD SVG 20010904//EN"
 "http://www.w3.org/TR/2001/REC-SVG-20010904/DTD/svg10.dtd">
<svg version="1.0" xmlns="http://www.w3.org/2000/svg"
 width="512.000000pt" height="512.000000pt" viewBox="0 0 512.000000 512.000000"
 preserveAspectRatio="xMidYMid meet">
<metadata>
Created by potrace 1.11, written by Peter Selinger 2001-2013
</metadata>
<g transform="translate(0.000000,512.000000) scale(0.100000,-0.100000)"
fill="#000000" stroke="none">
<path d="M2365 5094 c-16 -2 -73 -9 -125 -15 -333 -38 -728 -177 -1020 -359
-304 -190 -605 -484 -792 -775 -198 -308 -322 -632 -385 -1010 -14 -89 -18
-163 -17 -385 0 -251 3 -287 27 -420 176 -975 871 -1748 1809 -2014 267 -76
480 -101 773 -93 402 12 723 93 1076 273 248 126 453 276 654 479 630 635 879
1563 651 2430 -260 985 -1085 1721 -2096 1871 -99 14 -489 27 -555 18z m770
-1010 c170 -338 231 -631 175 -849 -11 -43 -31 -98 -44 -121 l-25 -44 108 0
c167 0 263 -33 379 -129 77 -64 136 -155 169 -259 23 -74 25 -94 20 -185 -5
-109 -29 -193 -72 -258 l-24 -36 65 -18 c117 -31 245 -128 315 -237 106 -164
112 -381 16 -562 -44 -82 -137 -173 -223 -218 -135 -71 -56 -68 -1490 -68
-1255 0 -1293 1 -1368 20 -459 117 -563 726 -170 989 41 28 100 58 132 67 31
10 60 20 64 24 4 3 1 37 -7 75 -19 88 -18 142 0 230 42 201 205 370 403 420
43 11 246 34 304 35 5 0 -7 20 -26 44 -165 216 -27 582 276 730 51 25 168 68
260 96 92 28 191 59 220 71 138 54 290 164 385 280 32 38 62 68 68 66 5 -2 46
-75 90 -163z"/>
<path d="M2707 3543 l-267 -268 -83 83 -82 82 -70 -70 -70 -70 155 -155 155
-155 338 338 337 337 -73 73 -72 72 -268 -267z"/>
<path d="M1840 2580 l0 -80 110 0 110 0 0 -320 0 -320 95 0 95 0 0 320 0 320
115 0 116 0 -3 78 -3 77 -317 3 -318 2 0 -80z"/>
<path d="M3190 2511 l0 -80 -47 -3 -48 -3 -3 -54 c-4 -61 4 -71 56 -71 19 0
32 -5 32 -12 0 -7 5 -92 10 -188 11 -189 17 -208 72 -236 43 -22 180 -17 205
9 16 16 16 21 3 59 -13 38 -19 43 -52 49 -66 10 -68 15 -68 175 l0 144 43 0
c24 0 48 5 55 12 7 7 12 36 12 65 l0 53 -55 0 -54 0 -3 78 -3 77 -77 3 -78 3
0 -80z"/>
<path d="M2672 2439 c-100 -17 -171 -71 -214 -164 -34 -75 -32 -200 5 -271 53
-104 153 -159 282 -158 172 2 299 129 299 299 0 194 -168 326 -372 294z m148
-159 c86 -62 79 -229 -13 -276 -40 -21 -120 -21 -153 1 -57 37 -77 170 -36
237 27 44 53 56 120 57 39 1 62 -5 82 -19z"/>
<path d="M3092 1718 c-17 -17 -15 -36 7 -48 30 -15 53 -2 49 29 -3 29 -35 40
-56 19z"/>
<path d="M2780 1552 l0 -168 99 -1 c100 -2 100 -2 125 28 51 60 26 199 -39
215 -14 3 -45 3 -70 0 l-45 -7 0 38 c0 44 -14 63 -47 63 l-23 0 0 -168z m143
19 c35 -14 53 -62 35 -98 -12 -25 -19 -28 -58 -28 l-45 0 -3 47 c-2 37 1 51
17 67 24 24 22 24 54 12z"/>
<path d="M3095 1618 c-3 -8 -4 -63 -3 -124 l3 -109 33 -3 32 -3 -1 98 c-1 54
-4 109 -8 123 -8 28 -48 40 -56 18z"/>
<path d="M3263 1608 c-49 -35 -68 -81 -53 -131 15 -50 47 -82 97 -97 82 -25
163 41 163 133 0 92 -127 151 -207 95z m121 -60 c35 -49 7 -108 -51 -108 -26
0 -53 35 -53 69 0 56 73 83 104 39z"/>
<path d="M2634 1439 c-19 -21 -13 -43 18 -62 22 -14 66 0 73 23 17 52 -52 82
-91 39z"/>
</g>
</svg>
