<svg width="157" height="139" viewBox="0 0 157 139" fill="none" xmlns="http://www.w3.org/2000/svg">
<path fill-rule="evenodd" clip-rule="evenodd" d="M94.7121 18.4471L97.2369 16.8267L94.8751 13.1467L92.2917 16.6746C88.969 21.212 85.6658 23.8748 82.4703 25.6374C79.2231 27.4284 75.9922 28.3508 72.5553 29.3203L72.3554 29.3767C66.9927 30.8887 61.122 32.544 56.1971 38.4298C51.7147 43.7868 49.7313 50.6931 51.949 56.6911L51.0105 56.7643C48.2922 56.9432 45.6362 57.6589 43.1959 58.87C40.7495 60.0842 38.5686 61.7722 36.7798 63.8359C34.9909 65.8997 33.6298 68.2983 32.7754 70.8923C31.921 73.4864 31.5903 76.2243 31.8025 78.9471C31.8973 80.1635 32.0995 81.366 32.4054 82.541C30.8441 82.7802 29.3116 83.1986 27.839 83.7904C25.303 84.8094 22.9949 86.3224 21.0487 88.2412C19.1025 90.16 17.5571 92.4466 16.5023 94.9679C15.4475 97.4892 14.9043 100.195 14.9043 102.928C14.9043 105.661 15.4475 108.367 16.5023 110.888C17.5571 113.409 19.1025 115.696 21.0487 117.615C22.9949 119.534 25.303 121.047 27.839 122.066C30.3681 123.082 33.0737 123.587 35.799 123.551H121.201C123.927 123.587 126.632 123.082 129.161 122.066C131.697 121.047 134.006 119.534 135.952 117.615C137.898 115.696 139.443 113.409 140.498 110.888C141.553 108.367 142.096 105.661 142.096 102.928C142.096 100.195 141.553 97.4892 140.498 94.9679C139.443 92.4466 137.898 90.16 135.952 88.2412C134.006 86.3224 131.697 84.8094 129.161 83.7904C127.661 83.1873 126.098 82.7643 124.505 82.5274C126.108 79.3847 126.893 75.855 126.739 72.2704C126.508 66.8761 124.17 61.7877 120.229 58.0977C116.392 54.5061 111.334 52.5181 106.089 52.5294C108.13 45.3271 106.291 37.2072 104.054 30.9613C102.627 26.9752 100.931 23.4585 99.5971 20.9447C98.9286 19.6844 98.3468 18.6678 97.9286 17.9608C97.7194 17.6071 97.5508 17.3303 97.4324 17.1387C97.3732 17.0429 97.3265 16.9683 97.2935 16.9159L97.2545 16.8542L97.2429 16.8362L97.2379 16.8282C97.2373 16.8274 97.2369 16.8267 94.7121 18.4471Z" fill="white"/>
</svg>
