<svg width="64" height="56" viewBox="0 0 64 56" fill="none" xmlns="http://www.w3.org/2000/svg">
<g filter="url(#filter0_d)">
<path fill-rule="evenodd" clip-rule="evenodd" d="M58.4513 23.8919C58.4429 25.5943 57.0561 26.9675 55.3538 26.9591L46.155 26.9138C46.6503 27.5204 46.944 28.2974 46.9352 29.1418C46.9221 30.3996 46.2409 31.4939 45.2323 32.0913C45.7948 32.7149 46.1337 33.5434 46.1242 34.4495C46.1083 35.9734 45.1118 37.2574 43.7404 37.7082C43.8684 38.0761 43.9361 38.472 43.9318 38.8839C43.9117 40.7989 42.3431 42.3352 40.4281 42.3151L26.6242 42.1709C25.2314 42.1563 24.039 41.3226 23.4999 40.1323C22.2911 39.0736 21.5274 37.519 21.5265 35.7858L21.5254 33.6495C19.6898 30.0986 20.1918 28.8378 20.7715 27.3818C21.3619 25.899 22.0328 24.2139 20.3979 19.7019C20.0842 18.8364 19.8985 18.1565 19.8195 17.6376L19.6584 17.3889C18.7328 15.9602 19.1406 14.0517 20.5693 13.1261C21.998 12.2005 23.9066 12.6083 24.8322 14.037L28.3999 19.5438C28.6512 19.9317 28.8042 20.3549 28.8652 20.7842C29.1374 20.7071 29.4248 20.6665 29.7219 20.668L55.3842 20.7944C57.0865 20.8028 58.4597 22.1896 58.4513 23.8919Z" fill="#C47A23"/>
</g>
<defs>
<filter id="filter0_d" x="5.42993" y="0.401031" width="58.0977" height="55.4016" filterUnits="userSpaceOnUse" color-interpolation-filters="sRGB">
<feFlood flood-opacity="0" result="BackgroundImageFix"/>
<feColorMatrix in="SourceAlpha" type="matrix" values="0 0 0 0 0 0 0 0 0 0 0 0 0 0 0 0 0 0 127 0"/>
<feOffset/>
<feGaussianBlur stdDeviation="2"/>
<feColorMatrix type="matrix" values="0 0 0 0 0 0 0 0 0 0 0 0 0 0 0 0 0 0 0.25 0"/>
<feBlend mode="normal" in2="BackgroundImageFix" result="effect1_dropShadow"/>
<feBlend mode="normal" in="SourceGraphic" in2="effect1_dropShadow" result="shape"/>
</filter>
</defs>
</svg>
